…
    ## [1] "Very good!"

### **q4** Join `df_covid` with `df_q3` by the `fips` column. Use the proper type of join to preserve *only* the rows in `df_covid`.

``` r
## TASK: Join df_covid and df_q3 by fips.
df_q4 <- 
  left_join(df_covid, df_q3, by = "fips")
df_q4
```

    ## # A tibble: 884,737 × 10
    ##    date       county      state fips  cases deaths id    Geogr…¹ Estim…² Margi…³
    ##    <date>     <chr>       <chr> <chr> <dbl>  <dbl> <chr> <chr>     <dbl> <chr>  
    ##  1 2020-01-21 Snohomish   Wash… 53061     1      0 0500… Snohom…  7.87e5 *****  
    ##  2 2020-01-22 Snohomish   Wash… 53061     1      0 0500… Snohom…  7.87e5 *****  
    ##  3 2020-01-23 Snohomish   Wash… 53061     1      0 0500… Snohom…  7.87e5 *****  
    ##  4 2020-01-24 Cook        Illi… 17031     1      0 0500… Cook C…  5.22e6 *****  
    ##  5 2020-01-24 Snohomish   Wash… 53061     1      0 0500… Snohom…  7.87e5 *****  
    ##  6 2020-01-25 Orange      Cali… 06059     1      0 0500… Orange…  3.16e6 *****  
    ##  7 2020-01-25 Cook        Illi… 17031     1      0 0500… Cook C…  5.22e6 *****  
    ##  8 2020-01-25 Snohomish   Wash… 53061     1      0 0500… Snohom…  7.87e5 *****  
    ##  9 2020-01-26 Maricopa    Ariz… 04013     1      0 0500… Marico…  4.25e6 *****  
    ## 10 2020-01-26 Los Angeles Cali… 06037     1      0 0500… Los An…  1.01e7 *****  
    ## # … with 884,727 more rows, and abbreviated variable names
    ## #   ¹​`Geographic Area Name`, ²​`Estimate!!Total`, ³​`Margin of Error!!Total`
…
### **q5** Use the `population` estimates in `df_data` to normalize `cases` and `deaths` to produce per 100,000 counts \[3\]. Store these values in the columns `cases_per100k` and `deaths_per100k`.

``` r
## TASK: Normalize cases and deaths
df_normalized <-
  df_data %>% 
  mutate(
    cases_per100k = cases / population * 100000,
    deaths_per100k = deaths / population * 100000
           )
df_normalized
```

    ## # A tibble: 884,737 × 9
    ##    date       county      state      fips  cases deaths popula…¹ cases…² death…³
    ##    <date>     <chr>       <chr>      <chr> <dbl>  <dbl>    <dbl>   <dbl>   <dbl>
    ##  1 2020-01-21 Snohomish   Washington 53061     1      0   786620 0.127         0
    ##  2 2020-01-22 Snohomish   Washington 53061     1      0   786620 0.127         0
    ##  3 2020-01-23 Snohomish   Washington 53061     1      0   786620 0.127         0
    ##  4 2020-01-24 Cook        Illinois   17031     1      0  5223719 0.0191        0
    ##  5 2020-01-24 Snohomish   Washington 53061     1      0   786620 0.127         0
    ##  6 2020-01-25 Orange      California 06059     1      0  3164182 0.0316        0
    ##  7 2020-01-25 Cook        Illinois   17031     1      0  5223719 0.0191        0
    ##  8 2020-01-25 Snohomish   Washington 53061     1      0   786620 0.127         0
    ##  9 2020-01-26 Maricopa    Arizona    04013     1      0  4253913 0.0235        0
    ## 10 2020-01-26 Los Angeles California 06037     1      0 10098052 0.00990       0
    ## # … with 884,727 more rows, and abbreviated variable names ¹​population,
    ## #   ²​cases_per100k, ³​deaths_per100k
…
